{
    "currentScenario": {
        "ALMemory": "R2019/Global/CurrentScenario",
        "reduxKey": "currentScenario",
        "scenario": "__SCENARIO"
    },
    "currentStep": {
        "ALMemory": "R2019/Global/CurrentStep",
        "reduxKey": "currentStep",
        "stepId": "__STEP_ID"
    },
    "stepSkipped": {
        "ALMemory": "R2019/Global/StepSkipped",
        "reduxKey": "stepSkipped",
        "stepId": "__STEP_ID"
    },
    "stepCompleted": {
        "ALMemory": "R2019/Global/StepCompleted",
        "reduxKey": "stepCompleted",
        "stepId": "__STEP_ID"
    },
    "stepReceived": {
        "reduxKey": "stepReceived",
        "ALMemory": "R2019/Global/StepReceived"
    },
    "timerState": {
        "ALMemory": "R2019/Global/TimerState",
        "reduxKey": "toggleTimer",
        "state": {
            "on": "TOGGLE_TIMER/ON",
            "off": "TOGGLE_TIMER/OFF"
        }
    },
    "currentAction": {
        "ALMemory": "R2019/Global/CurrentAction",
        "actionId": "__Step_ID"
    },
    "askToChangeScenario": {
        "ALMemory": "R2019/Global/AskToChangeScenario",
        "reduxKey": "askToChangeScenario",
        "scenario": "_scenarioName"
    },
    "actionComplete": {
        "ALMemory": "R2019/Global/ActionComplete",
        "reduxKey": "actionComplete"
    }
}